{
 "actions": [],
 "autoname": "prompt",
 "creation": "2018-04-13 18:07:21.582747",
 "doctype": "DocType",
 "editable_grid": 1,
 "engine": "InnoDB",
 "field_order": [
  "company",
  "department",
  "column_break_3",
  "from_date",
  "to_date",
  "staffing_plan_details",
  "get_job_requisitions",
  "staffing_details",
  "section_break_8",
  "total_estimated_budget",
  "amended_from"
 ],
 "fields": [
  {
   "fieldname": "company",
   "fieldtype": "Link",
   "in_list_view": 1,
   "label": "Company",
   "options": "Company",
   "reqd": 1
  },
  {
   "fieldname": "department",
   "fieldtype": "Link",
   "label": "Department",
   "options": "Department"
  },
  {
   "fieldname": "column_break_3",
   "fieldtype": "Column Break"
  },
  {
   "fieldname": "from_date",
   "fieldtype": "Date",
   "label": "From Date",
   "reqd": 1
  },
  {
   "fieldname": "to_date",
   "fieldtype": "Date",
   "label": "To Date",
   "reqd": 1
  },
  {
   "fieldname": "staffing_plan_details",
   "fieldtype": "Section Break",
   "label": "Details"
  },
  {
   "fieldname": "staffing_details",
   "fieldtype": "Table",
   "label": "Staffing Details",
   "options": "Staffing Plan Detail",
   "reqd": 1
  },
  {
   "fieldname": "section_break_8",
   "fieldtype": "Section Break"
  },
  {
   "default": "0.00",
   "fieldname": "total_estimated_budget",
   "fieldtype": "Currency",
   "label": "Total Estimated Budget",
   "options": "Company:company:default_currency",
   "read_only": 1
  },
  {
   "fieldname": "amended_from",
   "fieldtype": "Link",
   "label": "Amended From",
   "no_copy": 1,
   "options": "Staffing Plan",
   "print_hide": 1,
   "read_only": 1
  },
  {
   "fieldname": "get_job_requisitions",
   "fieldtype": "Button",
   "label": "Get Job Requisitions"
  }
 ],
 "is_submittable": 1,
 "links": [],
 "modified": "2024-03-27 13:10:43.405514",
 "modified_by": "Administrator",
 "module": "HR",
 "name": "Staffing Plan",
 "naming_rule": "Set by user",
 "owner": "Administrator",
 "permissions": [
  {
   "amend": 1,
   "cancel": 1,
   "create": 1,
   "delete": 1,
   "email": 1,
   "export": 1,
   "print": 1,
   "read": 1,
   "report": 1,
   "role": "HR Manager",
   "share": 1,
   "submit": 1,
   "write": 1
  },
  {
   "create": 1,
   "email": 1,
   "export": 1,
   "print": 1,
   "read": 1,
   "report": 1,
   "role": "HR User",
   "share": 1,
   "submit": 1,
   "write": 1
  }
 ],
 "quick_entry": 1,
 "sort_field": "creation",
 "sort_order": "DESC",
 "states": [],
 "track_changes": 1
}
