{
 "app": "hrms",
 "charts": [],
 "content": "[{\"id\":\"nZ9MUieUjy\",\"type\":\"header\",\"data\":{\"text\":\"<span class=\\\"h4\\\"><b>Your Shortcuts</b></span>\",\"col\":12}},{\"id\":\"ETYoHfg2k0\",\"type\":\"shortcut\",\"data\":{\"shortcut_name\":\"Appraisal\",\"col\":3}},{\"id\":\"VRnsImMEoD\",\"type\":\"shortcut\",\"data\":{\"shortcut_name\":\"Employee Performance Feedback\",\"col\":5}},{\"id\":\"vXBMJGJ98C\",\"type\":\"shortcut\",\"data\":{\"shortcut_name\":\"Goal\",\"col\":3}},{\"id\":\"Vtre-LDhRc\",\"type\":\"spacer\",\"data\":{\"col\":12}},{\"id\":\"NmUDJB28UL\",\"type\":\"header\",\"data\":{\"text\":\"<span class=\\\"h4\\\"><b>Masters &amp; Transactions</b></span>\",\"col\":12}},{\"id\":\"vNnUr6yHsH\",\"type\":\"card\",\"data\":{\"card_name\":\"Masters\",\"col\":4}},{\"id\":\"v8mC6C_9V-\",\"type\":\"card\",\"data\":{\"card_name\":\"Appraisal\",\"col\":4}},{\"id\":\"8X_kx16fax\",\"type\":\"card\",\"data\":{\"card_name\":\"Energy Points\",\"col\":4}},{\"id\":\"x_fx5yusAz\",\"type\":\"card\",\"data\":{\"card_name\":\"Promotion\",\"col\":4}},{\"id\":\"ofPrShxelC\",\"type\":\"card\",\"data\":{\"card_name\":\"Reports\",\"col\":4}}]",
 "creation": "2022-08-20 16:17:20.159886",
 "custom_blocks": [],
 "docstatus": 0,
 "doctype": "Workspace",
 "for_user": "",
 "hide_custom": 0,
 "icon": "star",
 "idx": 0,
 "is_hidden": 0,
 "is_standard": 1,
 "label": "Performance",
 "links": [
  {
   "columns": 0,
   "hidden": 0,
   "is_query_report": 0,
   "label": "Energy Points",
   "link_count": 3,
   "onboard": 0,
   "type": "Card Break"
  },
  {
   "columns": 0,
   "hidden": 0,
   "is_query_report": 0,
   "label": "Energy Point Rule",
   "link_count": 0,
   "link_to": "Energy Point Rule",
   "link_type": "DocType",
   "onboard": 0,
   "type": "Link"
  },
  {
   "columns": 0,
   "hidden": 0,
   "is_query_report": 0,
   "label": "Energy Point Settings",
   "link_count": 0,
   "link_to": "Energy Point Settings",
   "link_type": "DocType",
   "onboard": 0,
   "type": "Link"
  },
  {
   "columns": 0,
   "hidden": 0,
   "is_query_report": 0,
   "label": "Energy Point Log",
   "link_count": 0,
   "link_to": "Energy Point Log",
   "link_type": "DocType",
   "onboard": 0,
   "type": "Link"
  },
  {
   "columns": 0,
   "hidden": 0,
   "is_query_report": 0,
   "label": "Promotion",
   "link_count": 1,
   "onboard": 0,
   "type": "Card Break"
  },
  {
   "columns": 0,
   "hidden": 0,
   "is_query_report": 0,
   "label": "Employee Promotion",
   "link_count": 0,
   "link_to": "Employee Promotion",
   "link_type": "DocType",
   "onboard": 0,
   "type": "Link"
  },
  {
   "columns": 0,
   "hidden": 0,
   "is_query_report": 0,
   "label": "Masters",
   "link_count": 3,
   "onboard": 0,
   "type": "Card Break"
  },
  {
   "columns": 0,
   "hidden": 0,
   "is_query_report": 0,
   "label": "Appraisal Template",
   "link_count": 0,
   "link_to": "Appraisal Template",
   "link_type": "DocType",
   "onboard": 0,
   "type": "Link"
  },
  {
   "columns": 0,
   "hidden": 0,
   "is_query_report": 0,
   "label": "KRA",
   "link_count": 0,
   "link_to": "KRA",
   "link_type": "DocType",
   "onboard": 0,
   "type": "Link"
  },
  {
   "columns": 0,
   "hidden": 0,
   "is_query_report": 0,
   "label": "Employee Feedback Criteria",
   "link_count": 0,
   "link_to": "Employee Feedback Criteria",
   "link_type": "DocType",
   "onboard": 0,
   "type": "Link"
  },
  {
   "columns": 0,
   "hidden": 0,
   "is_query_report": 0,
   "label": "Appraisal",
   "link_count": 4,
   "onboard": 0,
   "type": "Card Break"
  },
  {
   "columns": 0,
   "hidden": 0,
   "is_query_report": 0,
   "label": "Appraisal",
   "link_count": 0,
   "link_to": "Appraisal",
   "link_type": "DocType",
   "onboard": 0,
   "type": "Link"
  },
  {
   "columns": 0,
   "hidden": 0,
   "is_query_report": 0,
   "label": "Appraisal Cycle",
   "link_count": 0,
   "link_to": "Appraisal Cycle",
   "link_type": "DocType",
   "onboard": 0,
   "type": "Link"
  },
  {
   "columns": 0,
   "hidden": 0,
   "is_query_report": 0,
   "label": "Employee Performance Feedback",
   "link_count": 0,
   "link_to": "Employee Performance Feedback",
   "link_type": "DocType",
   "onboard": 0,
   "type": "Link"
  },
  {
   "columns": 0,
   "hidden": 0,
   "is_query_report": 0,
   "label": "Goal",
   "link_count": 0,
   "link_to": "Goal",
   "link_type": "DocType",
   "onboard": 0,
   "type": "Link"
  },
  {
   "columns": 0,
   "hidden": 0,
   "is_query_report": 0,
   "label": "Reports",
   "link_count": 1,
   "onboard": 0,
   "type": "Card Break"
  },
  {
   "columns": 0,
   "hidden": 0,
   "is_query_report": 1,
   "label": "Appraisal Overview",
   "link_count": 0,
   "link_to": "Appraisal Overview",
   "link_type": "Report",
   "onboard": 0,
   "type": "Link"
  }
 ],
 "modified": "2025-02-18 15:55:42.734793",
 "modified_by": "Administrator",
 "module": "HR",
 "name": "Performance",
 "number_cards": [],
 "owner": "Administrator",
 "parent_page": "",
 "public": 1,
 "quick_lists": [],
 "roles": [],
 "sequence_id": 7.0,
 "shortcuts": [
  {
   "color": "Orange",
   "columns": 0,
   "doc_view": "List",
   "format": "{} Pending",
   "label": "Appraisal",
   "link_to": "Appraisal",
   "stats_filter": "[[\"Appraisal\",\"docstatus\",\"=\",\"0\",false]]",
   "type": "DocType"
  },
  {
   "color": "Grey",
   "columns": 0,
   "doc_view": "List",
   "label": "Employee Performance Feedback",
   "link_to": "Employee Performance Feedback",
   "type": "DocType"
  },
  {
   "color": "Grey",
   "columns": 0,
   "doc_view": "List",
   "label": "Goal",
   "link_to": "Goal",
   "type": "DocType"
  }
 ],
 "title": "Performance",
 "type": "Workspace"
}
