{
 "actions": [],
 "allow_rename": 1,
 "autoname": "Prompt",
 "creation": "2021-05-11 12:41:50.256071",
 "doctype": "DocType",
 "editable_grid": 1,
 "engine": "InnoDB",
 "field_order": [
  "section_break_5",
  "description"
 ],
 "fields": [
  {
   "fieldname": "section_break_5",
   "fieldtype": "Section Break"
  },
  {
   "fieldname": "description",
   "fieldtype": "Text",
   "label": "Description"
  }
 ],
 "index_web_pages_for_search": 1,
 "links": [],
 "modified": "2024-03-27 13:09:46.513495",
 "modified_by": "Administrator",
 "module": "HR",
 "name": "Grievance Type",
 "naming_rule": "Set by user",
 "owner": "Administrator",
 "permissions": [
  {
   "create": 1,
   "delete": 1,
   "email": 1,
   "export": 1,
   "print": 1,
   "read": 1,
   "report": 1,
   "role": "System Manager",
   "share": 1,
   "write": 1
  },
  {
   "create": 1,
   "delete": 1,
   "email": 1,
   "export": 1,
   "print": 1,
   "read": 1,
   "report": 1,
   "role": "HR Manager",
   "share": 1,
   "write": 1
  },
  {
   "create": 1,
   "delete": 1,
   "email": 1,
   "export": 1,
   "print": 1,
   "read": 1,
   "report": 1,
   "role": "HR User",
   "share": 1,
   "write": 1
  },
  {
   "email": 1,
   "export": 1,
   "print": 1,
   "read": 1,
   "report": 1,
   "role": "Employee",
   "share": 1
  }
 ],
 "quick_entry": 1,
 "sort_field": "creation",
 "sort_order": "DESC",
 "states": []
}
