{
 "actions": [],
 "creation": "2016-11-08 04:58:20.001780",
 "doctype": "DocType",
 "document_type": "Document",
 "editable_grid": 1,
 "engine": "InnoDB",
 "field_order": [
  "daily_work_summary_group",
  "status",
  "email_sent_to"
 ],
 "fields": [
  {
   "fieldname": "daily_work_summary_group",
   "fieldtype": "Link",
   "label": "Daily Work Summary Group",
   "options": "Daily Work Summary Group",
   "read_only": 1
  },
  {
   "default": "Open",
   "fieldname": "status",
   "fieldtype": "Select",
   "in_list_view": 1,
   "label": "Status",
   "options": "Open\nSent",
   "read_only": 1
  },
  {
   "fieldname": "email_sent_to",
   "fieldtype": "Code",
   "label": "Email Sent To",
   "read_only": 1
  }
 ],
 "in_create": 1,
 "links": [],
 "modified": "2024-09-18 13:30:28.136511",
 "modified_by": "Administrator",
 "module": "HR",
 "name": "Daily Work Summary",
 "owner": "Administrator",
 "permissions": [
  {
   "read": 1,
   "role": "Employee"
  },
  {
   "delete": 1,
   "email": 1,
   "export": 1,
   "print": 1,
   "read": 1,
   "report": 1,
   "role": "HR User",
   "share": 1
  }
 ],
 "quick_entry": 1,
 "sort_field": "creation",
 "sort_order": "DESC",
 "states": []
}
