{
 "actions": [],
 "creation": "2018-04-13 16:56:23.333041",
 "doctype": "DocType",
 "editable_grid": 1,
 "engine": "InnoDB",
 "field_order": [
  "exemption_sub_category",
  "exemption_category",
  "max_amount",
  "amount"
 ],
 "fields": [
  {
   "fieldname": "exemption_sub_category",
   "fieldtype": "Link",
   "in_list_view": 1,
   "label": "Exemption Sub Category",
   "options": "Employee Tax Exemption Sub Category",
   "reqd": 1
  },
  {
   "fetch_from": "exemption_sub_category.exemption_category",
   "fieldname": "exemption_category",
   "fieldtype": "Link",
   "in_list_view": 1,
   "label": "Exemption Category",
   "options": "Employee Tax Exemption Category",
   "read_only": 1,
   "reqd": 1
  },
  {
   "fetch_from": "exemption_sub_category.max_amount",
   "fieldname": "max_amount",
   "fieldtype": "Currency",
   "in_list_view": 1,
   "label": "Maximum Exempted Amount",
   "options": "currency",
   "read_only": 1,
   "reqd": 1
  },
  {
   "fieldname": "amount",
   "fieldtype": "Currency",
   "in_list_view": 1,
   "label": "Declared Amount",
   "options": "currency",
   "reqd": 1
  }
 ],
 "istable": 1,
 "links": [],
 "modified": "2024-03-27 13:09:41.993560",
 "modified_by": "Administrator",
 "module": "Payroll",
 "name": "Employee Tax Exemption Declaration Category",
 "owner": "Administrator",
 "permissions": [],
 "quick_entry": 1,
 "sort_field": "creation",
 "sort_order": "DESC",
 "states": [],
 "track_changes": 1
}
