{
 "actions": [],
 "allow_import": 1,
 "allow_rename": 1,
 "autoname": "Prompt",
 "creation": "2018-04-13 16:51:36.971140",
 "doctype": "DocType",
 "editable_grid": 1,
 "engine": "InnoDB",
 "field_order": [
  "max_amount",
  "is_active"
 ],
 "fields": [
  {
   "fieldname": "max_amount",
   "fieldtype": "Currency",
   "in_list_view": 1,
   "label": "Max Exemption Amount"
  },
  {
   "default": "1",
   "fieldname": "is_active",
   "fieldtype": "Check",
   "label": "Is Active"
  }
 ],
 "links": [],
 "modified": "2024-03-27 13:09:41.659098",
 "modified_by": "Administrator",
 "module": "Payroll",
 "name": "Employee Tax Exemption Category",
 "owner": "Administrator",
 "permissions": [
  {
   "create": 1,
   "delete": 1,
   "email": 1,
   "export": 1,
   "print": 1,
   "read": 1,
   "report": 1,
   "role": "System Manager",
   "share": 1,
   "write": 1
  },
  {
   "create": 1,
   "delete": 1,
   "email": 1,
   "export": 1,
   "print": 1,
   "read": 1,
   "report": 1,
   "role": "HR Manager",
   "share": 1,
   "write": 1
  },
  {
   "create": 1,
   "delete": 1,
   "email": 1,
   "export": 1,
   "print": 1,
   "read": 1,
   "report": 1,
   "role": "HR User",
   "share": 1,
   "write": 1
  }
 ],
 "sort_field": "creation",
 "sort_order": "DESC",
 "states": []
}
