{
 "actions": [],
 "allow_rename": 1,
 "autoname": "Prompt",
 "creation": "2021-04-12 14:44:40.664034",
 "doctype": "DocType",
 "editable_grid": 1,
 "engine": "InnoDB",
 "field_order": [
  "description"
 ],
 "fields": [
  {
   "fieldname": "description",
   "fieldtype": "Text",
   "in_list_view": 1,
   "label": "Description"
  }
 ],
 "index_web_pages_for_search": 1,
 "links": [
  {
   "link_doctype": "Interview Round",
   "link_fieldname": "interview_type"
  }
 ],
 "modified": "2024-03-27 13:09:52.310012",
 "modified_by": "Administrator",
 "module": "HR",
 "name": "Interview Type",
 "owner": "Administrator",
 "permissions": [
  {
   "create": 1,
   "delete": 1,
   "email": 1,
   "export": 1,
   "print": 1,
   "read": 1,
   "report": 1,
   "role": "System Manager",
   "share": 1,
   "write": 1
  },
  {
   "create": 1,
   "delete": 1,
   "email": 1,
   "export": 1,
   "print": 1,
   "read": 1,
   "report": 1,
   "role": "HR Manager",
   "share": 1,
   "write": 1
  },
  {
   "create": 1,
   "delete": 1,
   "email": 1,
   "export": 1,
   "print": 1,
   "read": 1,
   "report": 1,
   "role": "HR User",
   "share": 1,
   "write": 1
  }
 ],
 "sort_field": "creation",
 "sort_order": "DESC",
 "states": [],
 "track_changes": 1
}
