{
 "actions": [],
 "allow_import": 1,
 "allow_rename": 1,
 "autoname": "HR-LPR-.YYYY.-.#####",
 "creation": "2018-04-13 15:20:52.864288",
 "doctype": "DocType",
 "editable_grid": 1,
 "engine": "InnoDB",
 "field_order": [
   "title",
  "from_date",
  "to_date",
  "leave_types",
  "is_active",
  "column_break_3",
  "company",
  "optional_holiday_list"
 ],
 "fields": [
  {
   "fieldname": "from_date",
   "fieldtype": "Date",
   "in_list_view": 1,
   "label": "From Date",
   "reqd": 1
  },
  {
   "fieldname": "to_date",
   "fieldtype": "Date",
   "in_list_view": 1,
   "label": "To Date",
   "reqd": 1
  },
  {
   "default": "0",
   "fieldname": "is_active",
   "fieldtype": "Check",
   "label": "Is Active"
  },
  {
   "fieldname": "column_break_3",
   "fieldtype": "Column Break"
  },
  {
   "fieldname": "company",
   "fieldtype": "Link",
   "in_list_view": 1,
   "label": "Company",
   "options": "Company",
   "reqd": 1
  },
  {
   "fieldname": "optional_holiday_list",
   "fieldtype": "Link",
   "label": "Holiday List for Optional Leave",
   "options": "Holiday List"
  },
  {
    "fieldname": "leave_types",
    "fieldtype": "Table MultiSelect",
    "label": "Leave Types",
    "options": "Leave Period Types",
    "reqd": 1
   },
   {
    "fieldname": "title",
    "fieldtype": "Data",
    "hidden": 1,
    "label": "Title"
}
 ],
 "links": [],
 "modified": "2024-03-27 13:10:01.453851",
 "modified_by": "Administrator",
 "module": "HR",
 "name": "Leave Period",
 "naming_rule": "Expression (old style)",
 "owner": "Administrator",
 "permissions": [
  {
   "create": 1,
   "delete": 1,
   "email": 1,
   "export": 1,
   "print": 1,
   "read": 1,
   "report": 1,
   "role": "System Manager",
   "share": 1,
   "write": 1
  },
  {
   "create": 1,
   "delete": 1,
   "email": 1,
   "export": 1,
   "print": 1,
   "read": 1,
   "report": 1,
   "role": "HR Manager",
   "share": 1,
   "write": 1
  },
  {
   "create": 1,
   "delete": 1,
   "email": 1,
   "export": 1,
   "print": 1,
   "read": 1,
   "report": 1,
   "role": "HR User",
   "share": 1,
   "write": 1
  }
 ],
 "search_fields": "from_date, to_date, company",
 "sort_field": "creation",
 "sort_order": "DESC",
 "states": [],
 "title_field": "title",
 "track_changes": 1
}
