{
 "app": "hrms",
 "charts": [
  {
   "chart_name": "Outgoing Salary",
   "label": "Outgoing Salary"
  }
 ],
 "content": "[{\"id\":\"sN-N90hh44\",\"type\":\"chart\",\"data\":{\"chart_name\":\"Outgoing Salary\",\"col\":12}},{\"id\":\"7tlmDvuH-T\",\"type\":\"spacer\",\"data\":{\"col\":12}},{\"id\":\"jvTZ8RvO42\",\"type\":\"header\",\"data\":{\"text\":\"<span class=\\\"h4\\\"><b>Your Shortcuts</b></span>\",\"col\":12}},{\"id\":\"hNVIisuaFR\",\"type\":\"shortcut\",\"data\":{\"shortcut_name\":\"Salary Slip\",\"col\":3}},{\"id\":\"6XUIWHJ3jI\",\"type\":\"shortcut\",\"data\":{\"shortcut_name\":\"Payroll Entry\",\"col\":3}},{\"id\":\"yjIBi3GMoo\",\"type\":\"shortcut\",\"data\":{\"shortcut_name\":\"Salary Register\",\"col\":3}},{\"id\":\"ORKhwX-uqw\",\"type\":\"spacer\",\"data\":{\"col\":12}},{\"id\":\"gGURwviUAZ\",\"type\":\"header\",\"data\":{\"text\":\"<span class=\\\"h4\\\"><b>Transactions &amp; Reports</b></span>\",\"col\":12}},{\"id\":\"m7ibJXxzpl\",\"type\":\"card\",\"data\":{\"card_name\":\"Masters\",\"col\":4}},{\"id\":\"U-jv2v4nCv\",\"type\":\"card\",\"data\":{\"card_name\":\"Payroll\",\"col\":4}},{\"id\":\"LG69O3ku4y\",\"type\":\"card\",\"data\":{\"card_name\":\"Incentives\",\"col\":4}},{\"id\":\"kOuItimoNm\",\"type\":\"card\",\"data\":{\"card_name\":\"Accounting\",\"col\":4}},{\"id\":\"UJqBhPqNZd\",\"type\":\"card\",\"data\":{\"card_name\":\"Accounting Reports\",\"col\":4}},{\"id\":\"eNZuk6i-jy\",\"type\":\"card\",\"data\":{\"card_name\":\"Payroll Reports\",\"col\":4}},{\"id\":\"ll91Zs2cbx\",\"type\":\"card\",\"data\":{\"card_name\":\"Deduction Reports\",\"col\":4}}]",
 "creation": "2022-08-20 16:43:32.769568",
 "custom_blocks": [],
 "docstatus": 0,
 "doctype": "Workspace",
 "for_user": "",
 "hide_custom": 0,
 "icon": "accounting",
 "idx": 0,
 "is_hidden": 1,
 "is_standard": 1,
 "label": "Salary Payout",
 "links": [
  {
   "columns": 0,
   "hidden": 0,
   "is_query_report": 0,
   "label": "Masters",
   "link_count": 4,
   "onboard": 0,
   "type": "Card Break"
  },
  {
   "columns": 0,
   "hidden": 0,
   "is_query_report": 0,
   "label": "Salary Component",
   "link_count": 0,
   "link_to": "Salary Component",
   "link_type": "DocType",
   "onboard": 0,
   "type": "Link"
  },
  {
   "columns": 0,
   "hidden": 0,
   "is_query_report": 0,
   "label": "Salary Structure",
   "link_count": 0,
   "link_to": "Salary Structure",
   "link_type": "DocType",
   "onboard": 0,
   "type": "Link"
  },
  {
   "columns": 0,
   "hidden": 0,
   "is_query_report": 0,
   "label": "Income Tax Slab",
   "link_count": 0,
   "link_to": "Income Tax Slab",
   "link_type": "DocType",
   "onboard": 0,
   "type": "Link"
  },
  {
   "columns": 0,
   "hidden": 0,
   "is_query_report": 0,
   "label": "Payroll Period",
   "link_count": 0,
   "link_to": "Payroll Period",
   "link_type": "DocType",
   "onboard": 0,
   "type": "Link"
  },
  {
   "columns": 0,
   "hidden": 0,
   "is_query_report": 0,
   "label": "Incentives",
   "link_count": 3,
   "onboard": 0,
   "type": "Card Break"
  },
  {
   "columns": 0,
   "hidden": 0,
   "is_query_report": 0,
   "label": "Additional Salary",
   "link_count": 0,
   "link_to": "Additional Salary",
   "link_type": "DocType",
   "onboard": 0,
   "type": "Link"
  },
  {
   "columns": 0,
   "hidden": 0,
   "is_query_report": 0,
   "label": "Employee Incentive",
   "link_count": 0,
   "link_to": "Employee Incentive",
   "link_type": "DocType",
   "onboard": 0,
   "type": "Link"
  },
  {
   "columns": 0,
   "hidden": 0,
   "is_query_report": 0,
   "label": "Retention Bonus",
   "link_count": 0,
   "link_to": "Retention Bonus",
   "link_type": "DocType",
   "onboard": 0,
   "type": "Link"
  },
  {
   "columns": 0,
   "hidden": 0,
   "is_query_report": 0,
   "label": "Payroll Reports",
   "link_count": 5,
   "onboard": 0,
   "type": "Card Break"
  },
  {
   "columns": 0,
   "hidden": 0,
   "is_query_report": 1,
   "label": "Salary Register",
   "link_count": 0,
   "link_to": "Salary Register",
   "link_type": "Report",
   "onboard": 0,
   "type": "Link"
  },
  {
   "columns": 0,
   "hidden": 0,
   "is_query_report": 1,
   "label": "Bank Remittance",
   "link_count": 0,
   "link_to": "Bank Remittance",
   "link_type": "Report",
   "onboard": 0,
   "type": "Link"
  },
  {
   "columns": 0,
   "hidden": 0,
   "is_query_report": 1,
   "label": "Salary Payments Based On Payment Mode",
   "link_count": 0,
   "link_to": "Salary Payments Based On Payment Mode",
   "link_type": "Report",
   "onboard": 0,
   "type": "Link"
  },
  {
   "columns": 0,
   "hidden": 0,
   "is_query_report": 1,
   "label": "Salary Payments via ECS",
   "link_count": 0,
   "link_to": "Salary Payments via ECS",
   "link_type": "Report",
   "onboard": 0,
   "type": "Link"
  },
  {
   "columns": 0,
   "hidden": 0,
   "is_query_report": 1,
   "label": "Income Tax Computation",
   "link_count": 0,
   "link_to": "Income Tax Computation",
   "link_type": "Report",
   "onboard": 0,
   "type": "Link"
  },
  {
   "columns": 0,
   "hidden": 0,
   "is_query_report": 0,
   "label": "Deduction Reports",
   "link_count": 3,
   "onboard": 0,
   "type": "Card Break"
  },
  {
   "columns": 0,
   "hidden": 0,
   "is_query_report": 1,
   "label": "Provident Fund Deductions",
   "link_count": 0,
   "link_to": "Provident Fund Deductions",
   "link_type": "Report",
   "onboard": 0,
   "type": "Link"
  },
  {
   "columns": 0,
   "hidden": 0,
   "is_query_report": 1,
   "label": "Professional Tax Deductions",
   "link_count": 0,
   "link_to": "Professional Tax Deductions",
   "link_type": "Report",
   "onboard": 0,
   "type": "Link"
  },
  {
   "columns": 0,
   "hidden": 0,
   "is_query_report": 1,
   "label": "Income Tax Deductions",
   "link_count": 0,
   "link_to": "Income Tax Deductions",
   "link_type": "Report",
   "onboard": 0,
   "type": "Link"
  },
  {
   "columns": 0,
   "hidden": 0,
   "is_query_report": 0,
   "label": "Accounting",
   "link_count": 7,
   "onboard": 0,
   "type": "Card Break"
  },
  {
   "columns": 0,
   "hidden": 0,
   "is_query_report": 0,
   "label": "Chart of Accounts",
   "link_count": 0,
   "link_to": "Account",
   "link_type": "DocType",
   "onboard": 0,
   "type": "Link"
  },
  {
   "columns": 0,
   "hidden": 0,
   "is_query_report": 0,
   "label": "Chart of Cost Centers",
   "link_count": 0,
   "link_to": "Cost Center",
   "link_type": "DocType",
   "onboard": 0,
   "type": "Link"
  },
  {
   "columns": 0,
   "hidden": 0,
   "is_query_report": 0,
   "label": "Payment Entry",
   "link_count": 0,
   "link_to": "Payment Entry",
   "link_type": "DocType",
   "onboard": 0,
   "type": "Link"
  },
  {
   "columns": 0,
   "hidden": 0,
   "is_query_report": 0,
   "label": "Journal Entry",
   "link_count": 0,
   "link_to": "Journal Entry",
   "link_type": "DocType",
   "onboard": 0,
   "type": "Link"
  },
  {
   "columns": 0,
   "hidden": 0,
   "is_query_report": 0,
   "label": "Accounts Settings",
   "link_count": 0,
   "link_to": "Accounts Settings",
   "link_type": "DocType",
   "onboard": 0,
   "type": "Link"
  },
  {
   "columns": 0,
   "hidden": 0,
   "is_query_report": 0,
   "label": "Accounting Dimension",
   "link_count": 0,
   "link_to": "Accounting Dimension",
   "link_type": "DocType",
   "onboard": 0,
   "type": "Link"
  },
  {
   "columns": 0,
   "hidden": 0,
   "is_query_report": 0,
   "label": "Currency",
   "link_count": 0,
   "link_to": "Currency",
   "link_type": "DocType",
   "onboard": 0,
   "type": "Link"
  },
  {
   "columns": 0,
   "hidden": 0,
   "is_query_report": 0,
   "label": "Accounting Reports",
   "link_count": 3,
   "onboard": 0,
   "type": "Card Break"
  },
  {
   "columns": 0,
   "hidden": 0,
   "is_query_report": 1,
   "label": "General Ledger",
   "link_count": 0,
   "link_to": "General Ledger",
   "link_type": "Report",
   "onboard": 0,
   "type": "Link"
  },
  {
   "columns": 0,
   "hidden": 0,
   "is_query_report": 1,
   "label": "Accounts Payable",
   "link_count": 0,
   "link_to": "Accounts Payable",
   "link_type": "Report",
   "onboard": 0,
   "type": "Link"
  },
  {
   "columns": 0,
   "hidden": 0,
   "is_query_report": 1,
   "label": "Accounts Receivable",
   "link_count": 0,
   "link_to": "Accounts Receivable",
   "link_type": "Report",
   "onboard": 0,
   "type": "Link"
  },
  {
   "columns": 0,
   "hidden": 0,
   "is_query_report": 0,
   "label": "Payroll",
   "link_count": 5,
   "link_type": "DocType",
   "onboard": 0,
   "type": "Card Break"
  },
  {
   "columns": 0,
   "hidden": 0,
   "is_query_report": 0,
   "label": "Salary Structure Assignment",
   "link_count": 0,
   "link_to": "Salary Structure Assignment",
   "link_type": "DocType",
   "onboard": 0,
   "type": "Link"
  },
  {
   "columns": 0,
   "hidden": 0,
   "is_query_report": 0,
   "label": "Bulk Salary Structure Assignment",
   "link_count": 0,
   "link_to": "Bulk Salary Structure Assignment",
   "link_type": "DocType",
   "onboard": 0,
   "type": "Link"
  },
  {
   "hidden": 0,
   "is_query_report": 0,
   "label": "Salary Slip",
   "link_count": 0,
   "link_to": "Salary Slip",
   "link_type": "DocType",
   "onboard": 0,
   "type": "Link"
  },
  {
   "columns": 0,
   "hidden": 0,
   "is_query_report": 0,
   "label": "Payroll Entry",
   "link_count": 0,
   "link_to": "Payroll Entry",
   "link_type": "DocType",
   "onboard": 0,
   "type": "Link"
  },
  {
   "hidden": 0,
   "is_query_report": 0,
   "label": "Salary Withholding",
   "link_count": 0,
   "link_to": "Salary Withholding",
   "link_type": "DocType",
   "onboard": 0,
   "type": "Link"
  }
 ],
 "modified": "2025-01-15 17:26:05.803755",
 "modified_by": "Administrator",
 "module": "Payroll",
 "name": "Salary Payout",
 "number_cards": [],
 "owner": "Administrator",
 "parent_page": "",
 "public": 1,
 "quick_lists": [],
 "roles": [],
 "sequence_id": 9.0,
 "shortcuts": [
  {
   "color": "Red",
   "columns": 0,
   "doc_view": "List",
   "format": "{} Draft",
   "label": "Salary Slip",
   "link_to": "Salary Slip",
   "stats_filter": "{\"status\":[\"=\",\"Draft\"]}",
   "type": "DocType"
  },
  {
   "color": "Grey",
   "columns": 0,
   "doc_view": "List",
   "label": "Salary Register",
   "link_to": "Salary Register",
   "type": "Report"
  },
  {
   "color": "Red",
   "columns": 0,
   "doc_view": "List",
   "format": "{} Draft",
   "label": "Payroll Entry",
   "link_to": "Payroll Entry",
   "stats_filter": "{\"status\":[\"=\",\"Draft\"]}",
   "type": "DocType"
  }
 ],
 "title": "Salary Payout",
 "type": "Workspace"
}
