{
 "actions": [],
 "allow_import": 1,
 "allow_rename": 1,
 "autoname": "Prompt",
 "creation": "2018-04-13 16:14:24.174138",
 "doctype": "DocType",
 "editable_grid": 1,
 "engine": "InnoDB",
 "field_order": [
  "default_salary_structure",
  "currency",
  "default_base_pay"
 ],
 "fields": [
  {
   "fieldname": "default_salary_structure",
   "fieldtype": "Link",
   "label": "Default Salary Structure",
   "options": "Salary Structure"
  },
  {
   "depends_on": "default_salary_structure",
   "fieldname": "default_base_pay",
   "fieldtype": "Currency",
   "label": "Default Base Pay",
   "options": "currency"
  },
  {
   "fetch_from": "default_salary_structure.currency",
   "fieldname": "currency",
   "fieldtype": "Link",
   "hidden": 1,
   "label": "Currency",
   "options": "Currency",
   "read_only": 1
  }
 ],
 "index_web_pages_for_search": 1,
 "links": [],
 "modified": "2024-03-27 13:09:38.976321",
 "modified_by": "Administrator",
 "module": "HR",
 "name": "Employee Grade",
 "naming_rule": "Set by user",
 "owner": "Administrator",
 "permissions": [
  {
   "create": 1,
   "delete": 1,
   "email": 1,
   "export": 1,
   "print": 1,
   "read": 1,
   "report": 1,
   "role": "System Manager",
   "share": 1,
   "write": 1
  },
  {
   "create": 1,
   "delete": 1,
   "email": 1,
   "export": 1,
   "print": 1,
   "read": 1,
   "report": 1,
   "role": "HR Manager",
   "share": 1,
   "write": 1
  },
  {
   "create": 1,
   "delete": 1,
   "email": 1,
   "export": 1,
   "print": 1,
   "read": 1,
   "report": 1,
   "role": "HR User",
   "share": 1,
   "write": 1
  }
 ],
 "sort_field": "creation",
 "sort_order": "DESC",
 "states": [],
 "track_changes": 1
}
