{
 "actions": [],
 "creation": "2018-04-13 18:24:30.579965",
 "doctype": "DocType",
 "editable_grid": 1,
 "engine": "InnoDB",
 "field_order": [
  "property",
  "current",
  "new",
  "fieldname"
 ],
 "fields": [
  {
   "columns": 4,
   "fieldname": "property",
   "fieldtype": "Data",
   "in_list_view": 1,
   "label": "Property",
   "read_only": 1
  },
  {
   "columns": 3,
   "fieldname": "current",
   "fieldtype": "Data",
   "in_list_view": 1,
   "label": "Current",
   "read_only": 1
  },
  {
   "columns": 3,
   "fieldname": "new",
   "fieldtype": "Data",
   "in_list_view": 1,
   "label": "New",
   "read_only": 1
  },
  {
   "fieldname": "fieldname",
   "fieldtype": "Data",
   "hidden": 1,
   "label": "Field Name",
   "read_only": 1
  }
 ],
 "istable": 1,
 "links": [],
 "modified": "2024-03-27 13:09:40.798072",
 "modified_by": "Administrator",
 "module": "HR",
 "name": "Employee Property History",
 "owner": "Administrator",
 "permissions": [],
 "quick_entry": 1,
 "sort_field": "creation",
 "sort_order": "DESC",
 "states": [],
 "track_changes": 1
}
