{
 "actions": [],
 "allow_rename": 1,
 "creation": "2024-01-11 18:25:31.997051",
 "doctype": "DocType",
 "editable_grid": 1,
 "engine": "InnoDB",
 "field_order": [
  "expense_type",
  "amount",
  "net_amount",
  "tax_rate",
  "tax_amount"
 ],
 "fields": [
  {
   "fieldname": "tax_rate",
   "fieldtype": "Percent",
   "in_list_view": 1,
   "label": "Tax Rate",
   "read_only": 1
  },
  {
   "fieldname": "expense_type",
   "fieldtype": "Link",
   "in_list_view": 1,
   "label": "Expense Type",
   "options": "Expense Claim Type"
  },
  {
   "fieldname": "amount",
   "fieldtype": "Currency",
   "in_list_view": 1,
   "label": "Total Amount"
  },
  {
   "fieldname": "net_amount",
   "fieldtype": "Currency",
   "in_list_view": 1,
   "label": "Net Amount",
   "read_only": 1
  },
  {
   "fieldname": "tax_amount",
   "fieldtype": "Currency",
   "label": "Tax Amount",
   "read_only": 1
  }
 ],
 "index_web_pages_for_search": 1,
 "istable": 1,
 "links": [],
 "modified": "2024-01-25 14:25:26.743340",
 "modified_by": "Administrator",
 "module": "HR",
 "name": "Expense Tax Row",
 "owner": "Administrator",
 "permissions": [],
 "sort_field": "modified",
 "sort_order": "DESC",
 "states": []
}