{
 "actions": [],
 "creation": "2016-07-27 17:24:24.956896",
 "doctype": "DocType",
 "editable_grid": 1,
 "engine": "InnoDB",
 "field_order": [
  "company",
  "account"
 ],
 "fields": [
  {
   "fieldname": "company",
   "fieldtype": "Link",
   "in_list_view": 1,
   "label": "Company",
   "options": "Company"
  },
  {
   "description": "Default Bank / Cash account will be automatically updated in Salary Journal Entry when this mode is selected.",
   "fieldname": "account",
   "fieldtype": "Link",
   "in_list_view": 1,
   "label": "Account",
   "options": "Account"
  }
 ],
 "istable": 1,
 "links": [],
 "modified": "2024-03-27 13:10:34.071210",
 "modified_by": "Administrator",
 "module": "Payroll",
 "name": "Salary Component Account",
 "owner": "Administrator",
 "permissions": [],
 "sort_field": "creation",
 "sort_order": "DESC",
 "states": []
}
