{
 "actions": [],
 "autoname": "HR-INT-.YYYY.-.####",
 "creation": "2021-04-12 15:03:11.524090",
 "doctype": "DocType",
 "editable_grid": 1,
 "engine": "InnoDB",
 "field_order": [
  "interview_details_section",
  "interview_round",
  "job_applicant",
  "job_opening",
  "designation",
  "resume_link",
  "column_break_4",
  "status",
  "scheduled_on",
  "from_time",
  "to_time",
  "section_break_hqvh",
  "interview_details",
  "ratings_section",
  "expected_average_rating",
  "column_break_12",
  "average_rating",
  "section_break_13",
  "interview_summary",
  "reminded",
  "amended_from",
  "feedback_tab",
  "feedback_html"
 ],
 "fields": [
  {
   "fieldname": "job_applicant",
   "fieldtype": "Link",
   "in_list_view": 1,
   "in_standard_filter": 1,
   "label": "Job Applicant",
   "options": "Job Applicant",
   "reqd": 1
  },
  {
   "fetch_from": "job_applicant.job_title",
   "fieldname": "job_opening",
   "fieldtype": "Link",
   "label": "Job Opening",
   "options": "Job Opening",
   "read_only": 1
  },
  {
   "fieldname": "interview_round",
   "fieldtype": "Link",
   "in_list_view": 1,
   "in_standard_filter": 1,
   "label": "Interview Round",
   "options": "Interview Round",
   "reqd": 1
  },
  {
   "default": "Pending",
   "fieldname": "status",
   "fieldtype": "Select",
   "in_list_view": 1,
   "in_standard_filter": 1,
   "label": "Status",
   "options": "Pending\nUnder Review\nCleared\nRejected",
   "reqd": 1
  },
  {
   "fieldname": "ratings_section",
   "fieldtype": "Section Break",
   "label": "Ratings"
  },
  {
   "allow_on_submit": 1,
   "fieldname": "average_rating",
   "fieldtype": "Rating",
   "in_list_view": 1,
   "label": "Obtained Average Rating",
   "read_only": 1
  },
  {
   "allow_on_submit": 1,
   "fieldname": "interview_summary",
   "fieldtype": "Text"
  },
  {
   "fieldname": "column_break_4",
   "fieldtype": "Column Break"
  },
  {
   "fetch_from": "job_applicant.resume_link",
   "fetch_if_empty": 1,
   "fieldname": "resume_link",
   "fieldtype": "Data",
   "label": "Resume link"
  },
  {
   "fieldname": "interview_details_section",
   "fieldtype": "Section Break",
   "label": "Details"
  },
  {
   "fetch_from": "interview_round.expected_average_rating",
   "fieldname": "expected_average_rating",
   "fieldtype": "Rating",
   "label": "Expected Average Rating",
   "read_only": 1
  },
  {
   "collapsible": 1,
   "fieldname": "section_break_13",
   "fieldtype": "Section Break",
   "label": "Interview Summary"
  },
  {
   "fieldname": "column_break_12",
   "fieldtype": "Column Break"
  },
  {
   "fetch_from": "interview_round.designation",
   "fieldname": "designation",
   "fieldtype": "Link",
   "in_list_view": 1,
   "in_standard_filter": 1,
   "label": "Designation",
   "options": "Designation",
   "read_only": 1
  },
  {
   "fieldname": "amended_from",
   "fieldtype": "Link",
   "label": "Amended From",
   "no_copy": 1,
   "options": "Interview",
   "print_hide": 1,
   "read_only": 1
  },
  {
   "fieldname": "scheduled_on",
   "fieldtype": "Date",
   "in_list_view": 1,
   "in_standard_filter": 1,
   "label": "Scheduled On",
   "reqd": 1,
   "set_only_once": 1
  },
  {
   "default": "0",
   "fieldname": "reminded",
   "fieldtype": "Check",
   "hidden": 1,
   "label": "Reminded"
  },
  {
   "fieldname": "from_time",
   "fieldtype": "Time",
   "in_list_view": 1,
   "label": "From Time",
   "reqd": 1,
   "set_only_once": 1
  },
  {
   "fieldname": "to_time",
   "fieldtype": "Time",
   "in_list_view": 1,
   "label": "To Time",
   "reqd": 1,
   "set_only_once": 1
  },
  {
   "fieldname": "feedback_tab",
   "fieldtype": "Tab Break",
   "label": "Feedback"
  },
  {
   "fieldname": "feedback_html",
   "fieldtype": "HTML",
   "label": "Feedback HTML"
  },
  {
   "fieldname": "section_break_hqvh",
   "fieldtype": "Section Break"
  },
  {
   "allow_on_submit": 1,
   "fieldname": "interview_details",
   "fieldtype": "Table",
   "label": "Interviewers",
   "options": "Interview Detail"
  }
 ],
 "index_web_pages_for_search": 1,
 "is_submittable": 1,
 "links": [
  {
   "link_doctype": "Interview Feedback",
   "link_fieldname": "interview"
  }
 ],
 "modified": "2024-03-27 13:09:51.655366",
 "modified_by": "Administrator",
 "module": "HR",
 "name": "Interview",
 "naming_rule": "Expression (old style)",
 "owner": "Administrator",
 "permissions": [
  {
   "cancel": 1,
   "create": 1,
   "delete": 1,
   "email": 1,
   "export": 1,
   "print": 1,
   "read": 1,
   "report": 1,
   "role": "System Manager",
   "share": 1,
   "submit": 1,
   "write": 1
  },
  {
   "cancel": 1,
   "create": 1,
   "delete": 1,
   "email": 1,
   "export": 1,
   "print": 1,
   "read": 1,
   "report": 1,
   "role": "HR Manager",
   "share": 1,
   "submit": 1,
   "write": 1
  },
  {
   "cancel": 1,
   "create": 1,
   "delete": 1,
   "email": 1,
   "export": 1,
   "print": 1,
   "read": 1,
   "report": 1,
   "role": "Interviewer",
   "share": 1,
   "submit": 1,
   "write": 1
  },
  {
   "cancel": 1,
   "create": 1,
   "delete": 1,
   "email": 1,
   "export": 1,
   "print": 1,
   "read": 1,
   "report": 1,
   "role": "HR User",
   "share": 1,
   "submit": 1,
   "write": 1
  }
 ],
 "sort_field": "creation",
 "sort_order": "DESC",
 "states": [],
 "title_field": "job_applicant",
 "track_changes": 1
}
