{
 "actions": [],
 "allow_import": 1,
 "allow_rename": 1,
 "autoname": "field:source_name",
 "creation": "2018-06-16 12:28:26.432651",
 "doctype": "DocType",
 "editable_grid": 1,
 "engine": "InnoDB",
 "field_order": [
  "source_name",
  "details"
 ],
 "fields": [
  {
   "fieldname": "source_name",
   "fieldtype": "Data",
   "in_list_view": 1,
   "label": "Source Name",
   "reqd": 1,
   "unique": 1
  },
  {
   "fieldname": "details",
   "fieldtype": "Text Editor",
   "label": "Details"
  }
 ],
 "links": [],
 "modified": "2024-03-27 13:09:56.505846",
 "modified_by": "Administrator",
 "module": "HR",
 "name": "Job Applicant Source",
 "owner": "Administrator",
 "permissions": [
  {
   "create": 1,
   "delete": 1,
   "email": 1,
   "export": 1,
   "print": 1,
   "read": 1,
   "report": 1,
   "role": "HR User",
   "share": 1,
   "write": 1
  }
 ],
 "quick_entry": 1,
 "sort_field": "creation",
 "sort_order": "DESC",
 "states": []
}
