{
 "actions": [],
 "creation": "2020-08-05 19:00:28.097265",
 "doctype": "DocType",
 "editable_grid": 1,
 "engine": "InnoDB",
 "field_order": [
  "salary_component"
 ],
 "fields": [
  {
   "fieldname": "salary_component",
   "fieldtype": "Link",
   "in_list_view": 1,
   "label": "Salary Component ",
   "options": "Salary Component",
   "reqd": 1
  }
 ],
 "istable": 1,
 "links": [],
 "modified": "2024-03-27 13:09:46.121068",
 "modified_by": "Administrator",
 "module": "Payroll",
 "name": "Gratuity Applicable Component",
 "owner": "Administrator",
 "permissions": [],
 "quick_entry": 1,
 "sort_field": "creation",
 "sort_order": "DESC",
 "states": [],
 "track_changes": 1
}
