{
 "actions": [],
 "creation": "2019-04-16 09:57:52.751635",
 "doctype": "DocType",
 "editable_grid": 1,
 "engine": "InnoDB",
 "field_order": [
  "skill",
  "proficiency",
  "evaluation_date"
 ],
 "fields": [
  {
   "fieldname": "skill",
   "fieldtype": "Link",
   "in_list_view": 1,
   "label": "Skill",
   "options": "Skill",
   "reqd": 1
  },
  {
   "fieldname": "proficiency",
   "fieldtype": "Rating",
   "in_list_view": 1,
   "label": "Proficiency",
   "reqd": 1
  },
  {
   "default": "Today",
   "fieldname": "evaluation_date",
   "fieldtype": "Date",
   "in_list_view": 1,
   "label": "Evaluation Date"
  }
 ],
 "istable": 1,
 "links": [],
 "modified": "2024-03-27 13:09:41.391917",
 "modified_by": "Administrator",
 "module": "HR",
 "name": "Employee Skill",
 "owner": "Administrator",
 "permissions": [],
 "quick_entry": 1,
 "sort_field": "creation",
 "sort_order": "ASC",
 "states": [],
 "track_changes": 1
}
